Getting Started with EpiAwareR • EpiAwareR
…
# Detailed parameter estimates
summary(results)
#> # A tibble: 46 × 10
#>    variable       mean median     sd    mad     q5   q95  rhat ess_bulk ess_tail
#>    <chr>         <dbl>  <dbl>  <dbl>  <dbl>  <dbl> <dbl> <dbl>    <dbl>    <dbl>
#>  1 latent.ar_i…  0.638  0.658 0.460  0.463  -0.166 1.36  1.01      700.     708.
#>  2 latent.damp…  0.916  0.925 0.0541 0.0479  0.817 0.989 1.00      609.     427.
#>  3 latent.std    0.214  0.209 0.0466 0.0442  0.148 0.302 0.999     634.     727.
#>  4 latent.ϵ_t.…  0.739  0.736 0.873  0.886  -0.761 2.20  1.01     1364.     682.
#>  5 latent.ϵ_t.…  0.926  0.950 0.894  0.909  -0.599 2.38  1.00     1317.     559.
#>  6 latent.ϵ_t.…  1.01   1.01  0.895  0.881  -0.469 2.46  1.000    1836.     762.
#>  7 latent.ϵ_t.…  0.998  1.04  0.851  0.851  -0.314 2.31  1.00     1208.     646.
#>  8 latent.ϵ_t.…  0.583  0.588 0.837  0.843  -0.808 1.96  1.00      999.     908.
#>  9 latent.ϵ_t.…  0.147  0.161 0.848  0.876  -1.24  1.52  1.00     1269.     374.
#> 10 latent.ϵ_t.… -0.204 -0.205 0.772  0.774  -1.41  1.06  1.00     1342.     683.
#> # ℹ 36 more rows
…
