Replicating EpiNow2 Models • EpiAwareR
…
#>   Observation model: epiaware_negbin 
#> 
#> Sampling:
#>   Method: NUTS
#>   Chains: 2 
#>   Draws: 500 (per chain)
#> 
#> Convergence:
#>   Max Rhat: 1.009 
#>   Min ESS (bulk): 110 
#> 
#> Use summary() for parameter estimates
#> Use plot() to visualize results
summary(results)
#> # A tibble: 66 × 10
#>    variable            mean  median      sd     mad      q5   q95  rhat ess_bulk
#>    <chr>              <dbl>   <dbl>   <dbl>   <dbl>   <dbl> <dbl> <dbl>    <dbl>
#>  1 latent.ar_init.…  0.355   0.344  0.250   0.248   -0.0514 0.771 1.00     1042.
#>  2 latent.damp_AR.…  0.986   0.986  0.00804 0.00884  0.971  0.997 1.00      752.
#>  3 latent.std        0.181   0.180  0.0255  0.0254   0.140  0.224 1.00      281.
#>  4 latent.ϵ_t.1.    -0.519  -0.532  0.806   0.815   -1.85   0.879 1.00     1240.
#>  5 latent.ϵ_t.2.    -0.0345 -0.0613 0.799   0.802   -1.32   1.29  1.00     1443.
#>  6 latent.ϵ_t.3.    -0.836  -0.838  0.791   0.813   -2.12   0.431 1.00     1202.
#>  7 latent.ϵ_t.4.     0.252   0.267  0.796   0.780   -1.05   1.57  1.00     1174.
#>  8 latent.ϵ_t.5.     0.0999  0.0823 0.781   0.772   -1.19   1.42  0.999    1797.
#>  9 latent.ϵ_t.6.     0.511   0.510  0.793   0.744   -0.757  1.84  1.00     1505.
#> 10 latent.ϵ_t.7.     1.65    1.66   0.717   0.704    0.482  2.84  1.00     1352.
#> # ℹ 56 more rows
#> # ℹ 1 more variable: ess_tail <dbl>
…
