Case Study: Replicating Mishra et al. (2020) • EpiAwareR
…
Rhat < 1.1: Chains have converged to the same
distribution

ESS > 100: Sufficient effective sample size for
inference

No divergent transitions: NUTS is exploring the
posterior efficiently

Parameter Summaries

# Detailed posterior summaries
summary(results)
#> # A tibble: 53 × 10
#>    variable      mean median    sd    mad     q5     q95  rhat ess_bulk ess_tail
#>    <chr>        <dbl>  <dbl> <dbl>  <dbl>  <dbl>   <dbl> <dbl>    <dbl>    <dbl>
#>  1 latent.ar… -1.48   -1.94  0.800 0.0303 -1.97  -0.0984  1.53     7.15     59.9
#>  2 latent.ar… -0.0894 -0.135 0.247 0.268  -0.453  0.256   1.52     7.23     15.2
#>  3 latent.da…  0.525   0.466 0.188 0.142   0.290  0.819   1.59     6.83     10.9
#>  4 latent.da…  0.255   0.201 0.137 0.0758  0.102  0.480   1.53     7.30     56.1
#>  5 latent.std  1.17    0.370 1.42  0.0626  0.296  3.65    1.60     6.78     11.4
#>  6 latent.ϵ_…  2.17    2.72  1.54  1.00   -0.329  3.93    1.53     7.15     20.7
#>  7 latent.ϵ_…  1.15    1.22  0.716 0.869   0.218  2.26    1.46     7.72     16.9
#>  8 latent.ϵ_…  0.320   0.283 0.573 0.788  -0.268  1.33    1.24    12.3    1511. 
#>  9 latent.ϵ_…  0.227   0.347 0.488 0.366  -0.629  0.950   1.08    41.6    2023. 
#> 10 latent.ϵ_…  0.599   0.371 0.879 0.822  -0.614  1.89    1.57     6.88     12.0
#> # ℹ 43 more rows
…
